5.1-beta1:		12.07.2016
5.1-beta2:		18.07.2016
5.1-beta3:		25.07.2016
5.1-beta4:		01.08.2016
5.1-beta5:		03.08.2016
5.1-beta6:		19.08.2016
5.1-beta7:		29.08.2016
5.1:			16.09.2016

5.2-beta1:		21.09.2016
